[DEBUG|open_api.py:310] 2021-04-07 10:57:37,064 > connected
[DEBUG|open_api.py:251] 2021-04-07 10:57:37,067 > account_info 함수에 들어왔습니다!
[DEBUG|open_api.py:258] 2021-04-07 10:57:37,068 > get_login_info 함수에 들어왔습니다!
[DEBUG|open_api.py:254] 2021-04-07 10:57:37,068 > 계좌번호 : 8161795311
[DEBUG|open_api.py:167] 2021-04-07 10:57:37,069 > variable_setting 함수에 들어왔다.
[DEBUG|open_api.py:181] 2021-04-07 10:57:37,069 > 모의투자 1!!
[DEBUG|open_api.py:214] 2021-04-07 10:57:37,070 > db name !!! : JackBot1_imi1
[DEBUG|open_api.py:205] 2021-04-07 10:57:37,092 > JackBot1_imi1 데이터 베이스가 존재한다! 
[DEBUG|open_api.py:84] 2021-04-07 10:57:37,145 > self.sf.simul_num(알고리즘 번호) : 1
[DEBUG|open_api.py:85] 2021-04-07 10:57:37,146 > self.sf.db_to_realtime_daily_buy_list_num : 1
[DEBUG|open_api.py:86] 2021-04-07 10:57:37,146 > self.sf.sell_list_num : 1
[DEBUG|open_api.py:92] 2021-04-07 10:57:37,167 > setting_data db 존재한다!!!
[DEBUG|open_api.py:117] 2021-04-07 10:57:37,187 > all_item_db 없어서 생성!! init !! 
[DEBUG|open_api.py:464] 2021-04-07 10:57:37,187 > db_to_all_item 함수에 들어왔다!!!
[DEBUG|open_api.py:310] 2021-04-07 11:00:11,872 > connected
[DEBUG|open_api.py:251] 2021-04-07 11:00:11,873 > account_info 함수에 들어왔습니다!
[DEBUG|open_api.py:258] 2021-04-07 11:00:11,873 > get_login_info 함수에 들어왔습니다!
[DEBUG|open_api.py:254] 2021-04-07 11:00:11,874 > 계좌번호 : 8161795311
[DEBUG|open_api.py:167] 2021-04-07 11:00:11,874 > variable_setting 함수에 들어왔다.
[DEBUG|open_api.py:181] 2021-04-07 11:00:11,875 > 모의투자 1!!
[DEBUG|open_api.py:214] 2021-04-07 11:00:11,875 > db name !!! : JackBot1_imi1
[DEBUG|open_api.py:205] 2021-04-07 11:00:11,897 > JackBot1_imi1 데이터 베이스가 존재한다! 
[DEBUG|open_api.py:84] 2021-04-07 11:00:11,945 > self.sf.simul_num(알고리즘 번호) : 1
[DEBUG|open_api.py:85] 2021-04-07 11:00:11,946 > self.sf.db_to_realtime_daily_buy_list_num : 1
[DEBUG|open_api.py:86] 2021-04-07 11:00:11,946 > self.sf.sell_list_num : 1
[DEBUG|open_api.py:92] 2021-04-07 11:00:11,969 > setting_data db 존재한다!!!
[DEBUG|open_api.py:117] 2021-04-07 11:00:11,990 > all_item_db 없어서 생성!! init !! 
[DEBUG|open_api.py:464] 2021-04-07 11:00:11,991 > db_to_all_item 함수에 들어왔다!!!
